Id,Label,timeset,eigencentrality,Number of employees,pageranks,Degree,Betweenness Centrality,Total Distance,Closeness Centrality
Amersfoort,Amersfoort,,0.56418,195,0.048115,3,0.047368,383653.9,0.012404
Almere,Almere,,0.326971,259,0.034286,2,0,433387.7,0.010151
Amstelveen,Amstelveen,,0.676927,113,0.046844,3,0.126316,284344.6,0.015335
Amsterdam,Amsterdam,,0.550261,1087,0.06357,4,0.094737,306965,0.013614
Schiphol,Schiphol,,0.776244,,0.062047,4,0.263158,274532.3,0.016787
Utrecht,Utrecht,,1,445,0.091819,6,0.278947,300939.9,0.016166
Hilversum,Hilversum,,0.615075,112,0.047293,3,0.010526,340702.1,0.01348
Leiden,Leiden,,0.665562,156,0.063678,4,0.305263,268616.3,0.017894
Alphen aan de Rijn,Alphen ann de Rijn,,0.355521,138,0.034736,2,0.036842,320975,0.015752
Delft,Delft,,0.307437,129,0.038217,2,0.189474,310208.4,0.015095
Den Haag,Den Haag,,0.333514,679,0.051033,3,0.215789,288526.6,0.015978
Rotterdam,Rotterdam,,0.309794,812,0.078097,4,0.310526,323377.4,0.014977
Dordrecht,Dordrecht,,0.106111,148,0.023754,1,0,446097.4,0.010933
Gouda,Gouda,,0.392494,91,0.051942,3,0.205263,301998.2,0.016998
Vlaardingen,Vlaardingen,,0.127965,90,0.046707,2,0.1,383905.4,0.01285
Spijkenisse,Spijkenisse,,0.049039,90,0.026976,1,0,456325.4,0.010861
Woerden,Woerden,,0.519329,65,0.049622,3,0.242105,302289.1,0.016939
Zaanstad,Zaanstad,,0.255117,194,0.035748,2,0.015789,377975,0.011594
Zoetemeer,Zotemeer,,0.427748,156,0.049847,3,0.063158,288249.5,0.016856
Nieuwegein,Nieuwegein,,0.288104,100,0.020149,1,0,356254.9,0.013739
Haarlem,Haarlem,,0.304747,201,0.035518,2,0.057895,354282.6,0.01311
